<?xml version="1.0" encoding="utf-8"?>
<!-- Generator: Adobe Illustrator 19.0.0, SVG Export Plug-In . SVG Version: 6.00 Build 0)  -->
<svg version="1.1" id="Layer_1" xmlns="http://www.w3.org/2000/svg" xmlns:xlink="http://www.w3.org/1999/xlink" x="0px" y="0px"
	 width="521.9px" height="132.3px" viewBox="0 0 521.9 132.3" style="enable-background:new 0 0 521.9 132.3;" xml:space="preserve"
	>
<style type="text/css">
	.st0{fill:#FFFFFF;}
	.st1{fill:#A9CB38;}
</style>
<g>
	<g>
		<g>
			<path class="st0" d="M159.3,86.6h-10.6v-40h23.6v8.7h-13V63h12v8.7h-12V86.6z"/>
			<path class="st0" d="M209.7,46.6v24.1c0,5.2-1.5,9.3-4.4,12.2c-3,2.9-7.2,4.3-12.8,4.3c-5.5,0-9.6-1.4-12.6-4.2
				c-2.9-2.8-4.4-6.8-4.4-12V46.6h10.9v23.5c0,2.8,0.5,4.9,1.6,6.2c1.1,1.3,2.6,1.9,4.7,1.9c2.2,0,3.8-0.6,4.8-1.9
				c1-1.3,1.5-3.3,1.5-6.2V46.6H209.7z"/>
			<path class="st0" d="M233.5,86.6h-10.8V55.5h-9.8v-8.8h30.3v8.8h-9.7V86.6z"/>
			<path class="st0" d="M280.7,46.6v24.1c0,5.2-1.5,9.3-4.4,12.2c-3,2.9-7.2,4.3-12.8,4.3c-5.5,0-9.6-1.4-12.6-4.2
				c-2.9-2.8-4.4-6.8-4.4-12V46.6h10.9v23.5c0,2.8,0.5,4.9,1.6,6.2c1.1,1.3,2.6,1.9,4.7,1.9c2.2,0,3.8-0.6,4.8-1.9
				c1-1.3,1.5-3.3,1.5-6.2V46.6H280.7z"/>
			<path class="st0" d="M295,72.1v14.6h-10.8v-40h13.1c10.9,0,16.3,3.9,16.3,11.8c0,4.6-2.3,8.2-6.8,10.8l11.7,17.4h-12.3l-8.5-14.6
				H295z M295,64h2c3.8,0,5.7-1.7,5.7-5c0-2.8-1.9-4.1-5.6-4.1H295V64z"/>
			<path class="st0" d="M319.9,86.6v-40h10.9v40H319.9z"/>
			<path class="st0" d="M361.6,74.5c0,2.5-0.6,4.7-1.9,6.6c-1.3,1.9-3.1,3.4-5.4,4.5c-2.4,1.1-5.2,1.6-8.3,1.6
				c-2.7,0-4.9-0.2-6.7-0.6c-1.8-0.4-3.7-1-5.6-2V75c2.1,1.1,4.2,1.9,6.4,2.5c2.2,0.6,4.3,0.9,6.1,0.9c1.6,0,2.8-0.3,3.5-0.8
				c0.7-0.6,1.1-1.3,1.1-2.1c0-0.5-0.2-1-0.5-1.4c-0.3-0.4-0.8-0.8-1.5-1.2c-0.7-0.4-2.4-1.3-5.3-2.6c-2.6-1.2-4.6-2.3-5.9-3.4
				c-1.3-1.1-2.3-2.4-2.9-3.8c-0.6-1.4-0.9-3.1-0.9-5.1c0-3.7,1.3-6.6,4-8.6c2.7-2.1,6.4-3.1,11.1-3.1c4.1,0,8.4,1,12.7,2.9
				l-3.3,8.3c-3.7-1.7-7-2.6-9.7-2.6c-1.4,0-2.4,0.2-3.1,0.7c-0.6,0.5-1,1.1-1,1.8c0,0.8,0.4,1.5,1.2,2.1c0.8,0.6,3,1.8,6.6,3.4
				c3.4,1.6,5.8,3.2,7.2,5C360.9,69.6,361.6,71.8,361.6,74.5z"/>
			<path class="st0" d="M383.1,86.6h-10.8V55.5h-9.8v-8.8h30.3v8.8h-9.7V86.6z"/>
		</g>
		<g>
			<path class="st1" d="M395.8,86.6v-40h4.6v35.8h17.6v4.2H395.8z"/>
			<path class="st1" d="M450.4,86.6l-5-12.7h-16l-4.9,12.7h-4.7l15.8-40.2h3.9l15.7,40.2H450.4z M444,69.7l-4.7-12.4
				c-0.6-1.6-1.2-3.5-1.9-5.8c-0.4,1.8-1,3.7-1.7,5.8L431,69.7H444z"/>
			<path class="st1" d="M457.6,46.6h11.3c5.3,0,9.1,0.8,11.5,2.4c2.4,1.6,3.6,4.1,3.6,7.5c0,2.4-0.7,4.3-2,5.9
				c-1.3,1.5-3.3,2.5-5.8,3v0.3c6.1,1,9.1,4.2,9.1,9.6c0,3.6-1.2,6.4-3.6,8.4c-2.4,2-5.8,3-10.1,3h-14V46.6z M462.2,63.8h7.7
				c3.3,0,5.6-0.5,7.1-1.5c1.4-1,2.2-2.8,2.2-5.2c0-2.2-0.8-3.9-2.4-4.9c-1.6-1-4.2-1.5-7.7-1.5h-6.8V63.8z M462.2,67.7v15h8.3
				c3.2,0,5.7-0.6,7.3-1.9c1.6-1.2,2.4-3.2,2.4-5.9c0-2.5-0.8-4.3-2.5-5.5c-1.7-1.2-4.2-1.8-7.6-1.8H462.2z"/>
			<path class="st1" d="M512.4,76c0,3.5-1.3,6.3-3.8,8.2c-2.6,2-6,3-10.4,3c-4.7,0-8.4-0.6-10.9-1.8v-4.5c1.6,0.7,3.4,1.2,5.4,1.6
				c1.9,0.4,3.8,0.6,5.7,0.6c3.1,0,5.4-0.6,7-1.8c1.6-1.2,2.4-2.8,2.4-4.9c0-1.4-0.3-2.5-0.8-3.4c-0.6-0.9-1.5-1.7-2.8-2.4
				c-1.3-0.7-3.3-1.6-6-2.5c-3.7-1.3-6.4-2.9-8-4.7c-1.6-1.8-2.4-4.2-2.4-7.1c0-3.1,1.2-5.5,3.5-7.4c2.3-1.8,5.4-2.7,9.2-2.7
				c4,0,7.6,0.7,11,2.2l-1.4,4c-3.3-1.4-6.5-2.1-9.6-2.1c-2.5,0-4.4,0.5-5.8,1.6c-1.4,1.1-2.1,2.5-2.1,4.4c0,1.4,0.3,2.5,0.8,3.4
				c0.5,0.9,1.4,1.7,2.6,2.4c1.2,0.7,3.1,1.6,5.6,2.4c4.2,1.5,7.1,3.1,8.7,4.8C511.7,71,512.4,73.3,512.4,76z"/>
		</g>
	</g>
	<g>
		<path class="st1" d="M104.5,59.3c-0.6-2.1-2.6-3.7-4.2-5.1c-2-1.9-4.2-3.6-6-5.7c-0.6-0.7-1.2-1.4-1.5-2.3
			c-0.4-0.9-0.3-2.1-0.2-3.1c0-1.1,0.3-2.1,0.1-3.2c-0.2-1.2-1.2-2.4-1.9-3.4c-1-1.4-1.9-2.7-2.7-4.3c-0.7-1.3-1.4-2.6-2.3-3.8
			c-2.6-3.7-6.4-6.1-10.5-7.6c-3.9-1.4-8.3-2-12.8-1.8h0c-1,0-1.6,0-2.6,0.1c-2.4,0.2-5.7,0.7-8.4,1.4c-0.6,0.1-1.1,0.3-1.7,0.4
			l-0.2,0c-2.5,0.6-4.9,1.4-6.8,2.1c-2.2,0.9-3,1.2-4.6,2.1l-0.3,0.2l-0.4,0.2c-0.2,0.1-0.3,0.2-0.5,0.3c-0.3,0.2-0.5,0.3-0.8,0.5
			l-1.3,0.8l-0.3,0.2c-0.9,0.6-1.9,1.3-2.8,1.9c-4.1,3.1-7.5,7.1-9.9,11.7c-2.4,4.7-3.2,10.2-2.6,15.4c0.4,3.6,1.7,7.1,3.6,10.2
			c1,1.7,2.4,3,3.6,4.6c2.5,3.2,5,6.6,6.8,10.2c1,2,1.8,4.3,2.4,6.5c1.2,4.3,1.4,8.9,0.7,13.3c-0.1,0.5-0.2,1-0.3,1.4
			c0,0.1-0.2,0.4-0.1,0.5c0.3,0.5,0.6,0.9,0.9,1.3c1.8,2.5,4.2,4.7,6.8,6.3c3.7,2.3,8,2.9,12.2,3.2c1.3,0,4.3,0.2,5.6,0.2
			c0.1,0,0.2,0,0.2,0c5.4,0.1,11.1-0.4,16.1-2.1c0.1,0,0.1-0.1,0.2-0.1c0.3-0.1,2.4-1.2,2.4-1.4c-0.5-2.9-0.9-5.9-1-8.8
			c-0.1-1.7,0.3-3.5,0.8-5.1c0.3-1,0.6-1.9,1.1-2.8c0.1-0.2,0.2-0.3,0.3-0.5c1.9-0.4,3.9-0.4,5.8-0.5c1.2-0.1,2.4-0.3,3.6-0.5
			c1.5-0.3,2.9-0.7,4.3-1.4c1.6-0.9,3.3-1.7,4.4-3.2c0.8-1.1,1.3-2.8,0.9-4.1c-0.3-0.8-0.7-1.5-1.1-2.3c-0.4-0.9-0.4-1.6-0.2-2.6
			c0.3-1.3,1.6-2.2,1.7-3.6c0.1-1-1.4-1.7-2.2-2.1c0.1-0.1,0.2-0.2,0.1-0.1c0.4-0.3,0.8-0.5,1.2-0.9c1.7-1.7-1.2-3.2-1.3-4.9
			c-0.1-0.9,0.1-1.9,0.8-2.5c0,0,0.1,0,0.1-0.1c0.6-0.4,1.3-0.7,1.9-1.1C103.1,62.3,105.1,61.3,104.5,59.3z M98.4,63.8
			c-0.1,0-0.1,0.1-0.2,0.1c-0.5,0.3-1,0.6-1.5,0.9c-0.8,0.4-1.8,0.9-2.1,1.8c-0.3,0.7-0.3,1.6-0.1,2.3c0.1,0.7,0.9,1.4,1.3,2
			c0.5,0.6,0.5,1.3,0.1,2c-0.2,0.3-0.4,0.5-0.7,0.7c0,0,0,0,0,0c-0.3,0.2-0.6,0.4-0.9,0.5c0.2-0.1,0.3-0.2,0.5-0.2
			c-0.2,0.1-0.4,0.2-0.5,0.2c1.2,0.6,2.6,1.4,2.1,2.9c-0.2,0.7-0.7,1.2-1.1,1.8c-0.5,0.9-0.8,2-0.5,3c0.3,1,0.9,1.8,1.3,2.7
			c0.4,0.9,0.2,1.9-0.1,2.8c-0.2,0.8-0.7,1.5-1.2,2.1c-0.2,0.2-0.3,0.3-0.5,0.5c-2.6,1-5.7,1.2-8.5,1.4c-1.9,0.1-3.9,0.2-5.6,1.1
			c-0.8,0.5-1.8,0.9-2.5,1.5c-0.7,0.6-1.1,1.6-1.4,2.4c-1.1,2.8-1.4,5.6-1.1,8.6c0.2,2.1,0.5,4.2,0.8,6.2c-0.5,0.1-1,0.2-1.5,0.3
			c-3.8,0.8-7.8,1.1-11.7,1.1h-0.2c-1.1,0-2.1,0-3.2-0.1l-0.7,0c-0.6,0-1.7-0.2-2.4-0.2c0,0,0,0,0,0c-1.8-0.2-4.1-1.1-5.7-1.8
			c-3.3-1.4-6.1-3.6-8.4-6.4c-0.6-0.7-1.1-1.4-1.6-2.2c-0.2-0.4-0.1-0.5,0-0.9c0.9-3.5,0.9-7.3,0.4-10.9C40,83.5,37.1,78,33.3,72.7
			c-1.6-2.1-3.3-4.1-4.9-6.2c-1.9-2.6-3.3-5.6-4-8.8c-1.2-4.8-0.8-10.1,0.7-14.8c1.7-5,5-9.5,8.9-13.1c0.6-0.5,1.2-1,1.8-1.5
			l3.2-1.9c0,0,0,0,0,0c0,0,0.1,0,0.1-0.1c0.2-0.1,0.4-0.2,0.6-0.3c0.4-0.2,0.7-0.4,1.1-0.6c0,0,9-4.4,18.3-5c3-0.2,6.4,0.1,9.5,1
			c4.6,1.3,8.9,3.5,12,7.2c1.8,2.2,2.8,4.8,4.4,7.1c1.4,2.1,3.5,4.1,3.4,6.7c-0.1,2-0.5,4.1,0.6,5.9c1.2,2.1,3.3,3.7,5.1,5.3
			c1.9,1.7,4,3.4,5.4,5.5c0.5,0.7,0.9,1.6,0.8,2.5C100.2,62.8,99.1,63.3,98.4,63.8z"/>
		<g>
			<path class="st0" d="M3.5,50.5c2.7,1.4,5.7,2.1,8.8,2.9c9.8,2.3,20.1,3.1,29.7,3.6c0.9,0,1.4,0.1,1.9,0.1
				c0.6,0.1,1.1,0.1,2.3,0.1l0.8,0l0-0.8c0-0.5,0-1,0-1.5l0-1.2l-0.7,0c-5.2-0.3-8.7-0.7-13.6-1.3l-1-0.1
				c-5.7-0.7-11.7-1.6-17.4-3.5l-0.3-0.1c-1.8-0.6-5.7-1.8-5.8-3.8c0-1.1,1.4-1.9,2.7-2.6c0.7-0.4,1.6-0.7,2.5-0.9l0.6-0.2
				c0.4-0.1,0.8-0.2,1.2-0.3c0.6-0.1,1.1-0.3,1.7-0.4c0.6-0.1,1.2-0.2,1.7-0.4c0.7-0.2,1.4-0.3,2.1-0.4l0.4-0.1l1.2-2.2l-1.6,0.3
				c-1.1,0.2-2.1,0.5-3.1,0.7l-1.3,0.3c-3.9,0.9-7.9,1.9-11.6,3.5c-1.5,0.6-4.5,1.9-4.6,4.4C0.1,48.8,2.3,49.9,3.5,50.5z"/>
			<path class="st0" d="M94.8,38.8l0.2,0.4l0.5,0.1c5.9,0.7,10.7,1.7,15.9,3.4c5,1.6,5.9,3.1,6,3.7c0,0.2,0.2,0.7-0.6,1.5
				c-1.1,1.1-2.8,1.7-4.4,2.2l-0.4,0.1c-0.4,0.1-0.9,0.2-1.3,0.3c-0.6,0.2-1.3,0.3-1.9,0.4l-0.8,0.1c-2,0.4-4.2,0.8-6.2,1
				c-10.2,1.4-21.3,2-34.8,2.1l-1.2,0c-3.2,0-5.1-0.1-8.8-0.2l-0.7,0L56,57.4l0.8,0c1.5,0,3,0,4.5,0l0,0c6,0,11.3-0.2,18.5-0.6
				c8.7-0.5,21-1.7,30.5-4c4.1-1,6.7-1.7,9.4-2.9l0.4-0.2c1.8-0.8,4-1.8,5.1-3.4c0.5-0.8,0.6-1.6,0.3-2.5c-0.9-2.4-5.3-3.9-8.6-4.8
				l-0.2-0.1c-8.1-2.3-15.6-3.2-22.4-3.8l-1.6-0.1l1,1.3C93.9,37.1,94.5,37.9,94.8,38.8z"/>
			<polygon class="st0" points="55.8,84.3 55.8,84.3 55.8,84.3 			"/>
			<path class="st0" d="M116.8,69.4l-0.2-0.1c-3.9-1.1-8.8-2.2-15.2-2.9l-1-0.2l0.9,1.3c0.1,0.1,0.2,0.3,0.3,0.4
				c0.3,0.5,1,1.3,1.1,2.4l0.1,0.5l0.5,0.1c3.2,0.6,5.4,1.3,8.1,2.2c5,1.6,5.9,3.1,6,3.7c0,0.2,0.2,0.7-0.6,1.5
				c-1.2,1.2-2.9,1.7-4.7,2.3l0,0c-1.1,0.2-2.3,0.6-3.4,0.8c-2.1,0.4-4.3,0.8-7,1.2c-10.2,1.4-21.3,2-34.8,2.1l-1.2,0
				c-3.6,0-6.3-0.1-9.8-0.2l0,0.7c0,0,0,0-0.1,0c0,0.6,0.1,1.3,0.1,1.9c0,0,0,0,0,0l0,0.7l3.4,0c6.8,0,13.6-0.2,20.4-0.6
				c8.5-0.5,20.9-1.7,30.6-4.1l0.4-0.1c3.8-0.9,4.4-1,8.1-2.4c2.1-0.8,5.1-2.1,6.3-3.9c0.5-0.8,0.6-1.6,0.3-2.5
				C124.5,71.8,120,70.3,116.8,69.4z"/>
			<path class="st0" d="M47.7,84.8C47.7,84.8,47.7,84.8,47.7,84.8l-0.1-0.7l-16-1.5c-5.6-0.7-11.6-1.6-17.4-3.5L13.8,79
				c-1.8-0.6-5.7-1.8-5.7-3.8c0-1.1,1.4-1.9,2.7-2.6c0.8-0.4,1.9-0.8,3-1.1c1-0.3,2.3-0.6,3.2-0.9c1.7-0.4,3-0.7,4.9-1.1
				c0.3-0.1,1.1-0.2,1.1-0.2l-0.4-0.5c-0.1-0.2-0.3-0.4-0.4-0.6L22,67.8l-0.5,0.1c-1.5,0.3-2.8,0.6-4,0.9l-1.3,0.3
				C12.3,70,8.3,71,4.6,72.6C3.1,73.2,0.1,74.4,0,77c0.1,2.1,2.3,3.2,3.5,3.9c2.7,1.4,5.7,2.1,8.8,2.9c9.8,2.3,20.1,3.1,29.7,3.6
				c2,0.1,3.2,0.2,5.8,0.3l0-0.7c0,0,0,0,0.1,0C47.8,86.1,47.8,85.5,47.7,84.8z"/>
			<polygon class="st0" points="47.8,87.6 47.8,87.6 47.8,87.6 			"/>
			<path class="st0" d="M66.3,116.4l-0.5,0l-0.1,0.5c-0.2,0.8-0.2,0.7-0.4,1.4l-0.1,0.3c-0.6,2-1.9,6.1-4.1,6.2
				c-1.2-0.1-2.1-1.5-2.8-2.9c-0.4-0.9-0.8-1.9-1.2-3.1c-0.2-1.1-0.5-2.2-0.8-3.3c-2.2-12-2.9-24.4-3.2-33.9
				c-0.4-13.5-0.1-26.7,1-39.4c0.8-8.9,1.7-18.4,4.6-27.2c1.3-4,2.9-6.5,4.2-6.5c0.4,0,0.8,0.2,1.3,0.7c1.3,1.3,2,3.3,2.7,5.2
				c0.3,1,0.2,1,0.4,1.8l0.1,0.5l1.7,0.2c0,0-0.1-0.8-0.1-1c-0.7-5.3-1.2-6-2.5-9.5c-0.8-2.2-2.1-4.7-4-5.9C62,0.2,61.5,0,60.9,0
				c-3.1,0-4.9,5.3-6.1,9.3l-0.1,0.2c-2.7,9.4-3.6,19.6-4.3,29.1c-0.9,12.6-1.1,26-0.5,40c0.5,11.6,1.3,24,4.3,36.1l0.3,1.4
				c1,4.1,2,8.4,3.7,12.4c0.6,1.5,2,4.7,4.6,4.8h0.1c2.2-0.1,3.4-2.4,4-3.7c1.5-2.8,2.3-6,3-9.3l0.6-4.3l-0.8,0.1
				C68.7,116.2,67.5,116.3,66.3,116.4z M62.7,132.3c0.1,0.1,0.1,0.2,0.1,0.2C62.8,132.5,62.7,132.4,62.7,132.3z"/>
		</g>
		<g>
			<path class="st1" d="M18.8,69.7c0,1.9-1.5,3.4-3.4,3.4c-1.9,0-3.4-1.5-3.4-3.4c0-1.9,1.5-3.4,3.4-3.4
				C17.2,66.3,18.8,67.8,18.8,69.7z"/>
			<path class="st1" d="M58.2,100.5c0,3-2.4,5.4-5.4,5.4c-3,0-5.4-2.4-5.4-5.4c0-3,2.4-5.4,5.4-5.4C55.8,95.1,58.2,97.5,58.2,100.5z
				"/>
			<path class="st1" d="M112.9,51.6c0,2-1.7,3.7-3.7,3.7c-2.1,0-3.7-1.7-3.7-3.7c0-2,1.7-3.7,3.7-3.7
				C111.2,47.9,112.9,49.6,112.9,51.6z"/>
		</g>
	</g>
</g>
</svg>
